TPC PRATICO4 PARTE IV-V/simulation/qsim/FreqDivider_Demo.msim.vcd
$comment
	File created using the following command:
		vcd file FreqDivider_Demo.msim.vcd -direction
$end
$date
	Thu Mar 21 15:37:05 2019
$end
$version
	ModelSim Version 10.5b
$end
$timescale
	1ps
$end

$scope module freqdivider_vhd_vec_tst $end
$var wire 1 ! clkIn $end
$var wire 1 " clkOut $end

$scope module i1 $end
$var wire 1 # gnd $end
$var wire 1 $ vcc $end
$var wire 1 % unknown $end
$var wire 1 & devoe $end
$var wire 1 ' devclrn $end
$var wire 1 ( devpor $end
$var wire 1 ) ww_devoe $end
$var wire 1 * ww_devclrn $end
$var wire 1 + ww_devpor $end
$var wire 1 , ww_clkIn $end
$var wire 1 - ww_clkOut $end
$var wire 1 . \clkIn~inputclkctrl_INCLK_bus\ [3] $end
$var wire 1 / \clkIn~inputclkctrl_INCLK_bus\ [2] $end
$var wire 1 0 \clkIn~inputclkctrl_INCLK_bus\ [1] $end
$var wire 1 1 \clkIn~inputclkctrl_INCLK_bus\ [0] $end
$var wire 1 2 \clkOut~output_o\ $end
$var wire 1 3 \clkIn~input_o\ $end
$var wire 1 4 \clkIn~inputclkctrl_outclk\ $end
$var wire 1 5 \Add0~0_combout\ $end
$var wire 1 6 \Add0~1\ $end
$var wire 1 7 \Add0~2_combout\ $end
$var wire 1 8 \s_counter~0_combout\ $end
$var wire 1 9 \Add0~3\ $end
$var wire 1 : \Add0~4_combout\ $end
$var wire 1 ; \Add0~5\ $end
$var wire 1 < \Add0~6_combout\ $end
$var wire 1 = \Add0~7\ $end
$var wire 1 > \Add0~8_combout\ $end
$var wire 1 ? \Add0~9\ $end
$var wire 1 @ \Add0~10_combout\ $end
$var wire 1 A \Add0~11\ $end
$var wire 1 B \Add0~12_combout\ $end
$var wire 1 C \Add0~13\ $end
$var wire 1 D \Add0~14_combout\ $end
$var wire 1 E \Add0~15\ $end
$var wire 1 F \Add0~16_combout\ $end
$var wire 1 G \Add0~17\ $end
$var wire 1 H \Add0~18_combout\ $end
$var wire 1 I \Add0~19\ $end
$var wire 1 J \Add0~20_combout\ $end
$var wire 1 K \Add0~21\ $end
$var wire 1 L \Add0~22_combout\ $end
$var wire 1 M \Add0~23\ $end
$var wire 1 N \Add0~24_combout\ $end
$var wire 1 O \Equal0~2_combout\ $end
$var wire 1 P \Equal0~1_combout\ $end
$var wire 1 Q \Add0~25\ $end
$var wire 1 R \Add0~26_combout\ $end
$var wire 1 S \Add0~27\ $end
$var wire 1 T \Add0~28_combout\ $end
$var wire 1 U \Add0~29\ $end
$var wire 1 V \Add0~30_combout\ $end
$var wire 1 W \Add0~31\ $end
$var wire 1 X \Add0~32_combout\ $end
$var wire 1 Y \Equal0~3_combout\ $end
$var wire 1 Z \Equal0~0_combout\ $end
$var wire 1 [ \Equal0~4_combout\ $end
$var wire 1 \ \Add0~33\ $end
$var wire 1 ] \Add0~34_combout\ $end
$var wire 1 ^ \Add0~35\ $end
$var wire 1 _ \Add0~36_combout\ $end
$var wire 1 ` \Add0~37\ $end
$var wire 1 a \Add0~38_combout\ $end
$var wire 1 b \Add0~39\ $end
$var wire 1 c \Add0~40_combout\ $end
$var wire 1 d \Add0~41\ $end
$var wire 1 e \Add0~42_combout\ $end
$var wire 1 f \Add0~43\ $end
$var wire 1 g \Add0~44_combout\ $end
$var wire 1 h \Add0~45\ $end
$var wire 1 i \Add0~46_combout\ $end
$var wire 1 j \Add0~47\ $end
$var wire 1 k \Add0~48_combout\ $end
$var wire 1 l \Equal0~6_combout\ $end
$var wire 1 m \Equal0~5_combout\ $end
$var wire 1 n \Add0~49\ $end
$var wire 1 o \Add0~50_combout\ $end
$var wire 1 p \Add0~51\ $end
$var wire 1 q \Add0~52_combout\ $end
$var wire 1 r \Add0~53\ $end
$var wire 1 s \Add0~54_combout\ $end
$var wire 1 t \Add0~55\ $end
$var wire 1 u \Add0~56_combout\ $end
$var wire 1 v \Add0~57\ $end
$var wire 1 w \Add0~58_combout\ $end
$var wire 1 x \Add0~59\ $end
$var wire 1 y \Add0~60_combout\ $end
$var wire 1 z \Equal0~7_combout\ $end
$var wire 1 { \Equal0~8_combout\ $end
$var wire 1 | \Equal0~9_combout\ $end
$var wire 1 } \clkOut~0_combout\ $end
$var wire 1 ~ \clkOut~reg0_q\ $end
$var wire 1 !! s_counter [30] $end
$var wire 1 "! s_counter [29] $end
$var wire 1 #! s_counter [28] $end
$var wire 1 $! s_counter [27] $end
$var wire 1 %! s_counter [26] $end
$var wire 1 &! s_counter [25] $end
$var wire 1 '! s_counter [24] $end
$var wire 1 (! s_counter [23] $end
$var wire 1 )! s_counter [22] $end
$var wire 1 *! s_counter [21] $end
$var wire 1 +! s_counter [20] $end
$var wire 1 ,! s_counter [19] $end
$var wire 1 -! s_counter [18] $end
$var wire 1 .! s_counter [17] $end
$var wire 1 /! s_counter [16] $end
$var wire 1 0! s_counter [15] $end
$var wire 1 1! s_counter [14] $end
$var wire 1 2! s_counter [13] $end
$var wire 1 3! s_counter [12] $end
$var wire 1 4! s_counter [11] $end
$var wire 1 5! s_counter [10] $end
$var wire 1 6! s_counter [9] $end
$var wire 1 7! s_counter [8] $end
$var wire 1 8! s_counter [7] $end
$var wire 1 9! s_counter [6] $end
$var wire 1 :! s_counter [5] $end
$var wire 1 ;! s_counter [4] $end
$var wire 1 <! s_counter [3] $end
$var wire 1 =! s_counter [2] $end
$var wire 1 >! s_counter [1] $end
$var wire 1 ?! s_counter [0] $end
$upscope $end
$upscope $end
$enddefinitions $end
#0
$dumpvars
0!
0"
0#
1$
x%
1&
1'
1(
1)
1*
1+
0,
0-
02
03
04
15
06
07
08
19
0:
0;
0<
1=
0>
0?
0@
1A
0B
0C
0D
1E
0F
0G
0H
1I
0J
0K
0L
1M
0N
1O
1P
0Q
0R
1S
0T
0U
0V
1W
0X
1Y
1Z
1[
0\
0]
1^
0_
0`
0a
1b
0c
0d
0e
1f
0g
0h
0i
1j
0k
1l
1m
0n
0o
1p
0q
0r
0s
1t
0u
0v
0w
1x
0y
1z
1{
1|
1}
0~
0!!
0"!
0#!
0$!
0%!
0&!
0'!
0(!
0)!
0*!
0+!
0,!
0-!
0.!
0/!
00!
01!
02!
03!
04!
05!
06!
07!
08!
09!
0:!
0;!
0<!
0=!
0>!
0?!
1.
1/
10
01
$end
#10000
1!
1,
13
11
14
1?!
1~
05
16
0}
17
12
1-
1"
#20000
0!
0,
03
01
04
#30000
1!
1,
13
11
14
0?!
0~
15
06
18
1}
07
02
08
0-
0"
#40000
0!
0,
03
01
04
#50000
1!
1,
13
11
14
1?!
1~
05
16
0}
17
12
1-
1"
#60000
0!
0,
03
01
04
#70000
1!
1,
13
11
14
0?!
0~
15
06
18
1}
07
02
08
0-
0"
#80000
0!
0,
03
01
04
#90000
1!
1,
13
11
14
1?!
1~
05
16
0}
17
12
1-
1"
#100000
0!
0,
03
01
04
#110000
1!
1,
13
11
14
0?!
0~
15
06
18
1}
07
02
08
0-
0"
#120000
0!
0,
03
01
04
#130000
1!
1,
13
11
14
1?!
1~
05
16
0}
17
12
1-
1"
#140000
0!
0,
03
01
04
#150000
1!
1,
13
11
14
0?!
0~
15
06
18
1}
07
02
08
0-
0"
#160000
0!
0,
03
01
04
#170000
1!
1,
13
11
14
1?!
1~
05
16
0}
17
12
1-
1"
#180000
0!
0,
03
01
04
#190000
1!
1,
13
11
14
0?!
0~
15
06
18
1}
07
02
08
0-
0"
#200000
0!
0,
03
01
04
#210000
1!
1,
13
11
14
1?!
1~
05
16
0}
17
12
1-
1"
#220000
0!
0,
03
01
04
#230000
1!
1,
13
11
14
0?!
0~
15
06
18
1}
07
02
08
0-
0"
#240000
0!
0,
03
01
04
#250000
1!
1,
13
11
14
1?!
1~
05
16
0}
17
12
1-
1"
#260000
0!
0,
03
01
04
#270000
1!
1,
13
11
14
0?!
0~
15
06
18
1}
07
02
08
0-
0"
#280000
0!
0,
03
01
04
#290000
1!
1,
13
11
14
1?!
1~
05
16
0}
17
12
1-
1"
#300000
0!
0,
03
01
04
#310000
1!
1,
13
11
14
0?!
0~
15
06
18
1}
07
02
08
0-
0"
#320000
0!
0,
03
01
04
#330000
1!
1,
13
11
14
1?!
1~
05
16
0}
17
12
1-
1"
#340000
0!
0,
03
01
04
#350000
1!
1,
13
11
14
0?!
0~
15
06
18
1}
07
02
08
0-
0"
#360000
0!
0,
03
01
04
#370000
1!
1,
13
11
14
1?!
1~
05
16
0}
17
12
1-
1"
#380000
0!
0,
03
01
04
#390000
1!
1,
13
11
14
0?!
0~
15
06
18
1}
07
02
08
0-
0"
#400000
0!
0,
03
01
04
#410000
1!
1,
13
11
14
1?!
1~
05
16
0}
17
12
1-
1"
#420000
0!
0,
03
01
04
#430000
1!
1,
13
11
14
0?!
0~
15
06
18
1}
07
02
08
0-
0"
#440000
0!
0,
03
01
04
#450000
1!
1,
13
11
14
1?!
1~
05
16
0}
17
12
1-
1"
#460000
0!
0,
03
01
04
#470000
1!
1,
13
11
14
0?!
0~
15
06
18
1}
07
02
08
0-
0"
#480000
0!
0,
03
01
04
#490000
1!
1,
13
11
14
1?!
1~
05
16
0}
17
12
1-
1"
#500000
0!
0,
03
01
04
#510000
1!
1,
13
11
14
0?!
0~
15
06
18
1}
07
02
08
0-
0"
#520000
0!
0,
03
01
04
#530000
1!
1,
13
11
14
1?!
1~
05
16
0}
17
12
1-
1"
#540000
0!
0,
03
01
04
#550000
1!
1,
13
11
14
0?!
0~
15
06
18
1}
07
02
08
0-
0"
#560000
0!
0,
03
01
04
#570000
1!
1,
13
11
14
1?!
1~
05
16
0}
17
12
1-
1"
#580000
0!
0,
03
01
04
#590000
1!
1,
13
11
14
0?!
0~
15
06
18
1}
07
02
08
0-
0"
#600000
0!
0,
03
01
04
#610000
1!
1,
13
11
14
1?!
1~
05
16
0}
17
12
1-
1"
#620000
0!
0,
03
01
04
#630000
1!
1,
13
11
14
0?!
0~
15
06
18
1}
07
02
08
0-
0"
#640000
0!
0,
03
01
04
#650000
1!
1,
13
11
14
1?!
1~
05
16
0}
17
12
1-
1"
#660000
0!
0,
03
01
04
#670000
1!
1,
13
11
14
0?!
0~
15
06
18
1}
07
02
08
0-
0"
#680000
0!
0,
03
01
04
#690000
1!
1,
13
11
14
1?!
1~
05
16
0}
17
12
1-
1"
#700000
0!
0,
03
01
04
#710000
1!
1,
13
11
14
0?!
0~
15
06
18
1}
07
02
08
0-
0"
#720000
0!
0,
03
01
04
#730000
1!
1,
13
11
14
1?!
1~
05
16
0}
17
12
1-
1"
#740000
0!
0,
03
01
04
#750000
1!
1,
13
11
14
0?!
0~
15
06
18
1}
07
02
08
0-
0"
#760000
0!
0,
03
01
04
#770000
1!
1,
13
11
14
1?!
1~
05
16
0}
17
12
1-
1"
#780000
0!
0,
03
01
04
#790000
1!
1,
13
11
14
0?!
0~
15
06
18
1}
07
02
08
0-
0"
#800000
0!
0,
03
01
04
#810000
1!
1,
13
11
14
1?!
1~
05
16
0}
17
12
1-
1"
#820000
0!
0,
03
01
04
#830000
1!
1,
13
11
14
0?!
0~
15
06
18
1}
07
02
08
0-
0"
#840000
0!
0,
03
01
04
#850000
1!
1,
13
11
14
1?!
1~
05
16
0}
17
12
1-
1"
#860000
0!
0,
03
01
04
#870000
1!
1,
13
11
14
0?!
0~
15
06
18
1}
07
02
08
0-
0"
#880000
0!
0,
03
01
04
#890000
1!
1,
13
11
14
1?!
1~
05
16
0}
17
12
1-
1"
#900000
0!
0,
03
01
04
#910000
1!
1,
13
11
14
0?!
0~
15
06
18
1}
07
02
08
0-
0"
#920000
0!
0,
03
01
04
#930000
1!
1,
13
11
14
1?!
1~
05
16
0}
17
12
1-
1"
#940000
0!
0,
03
01
04
#950000
1!
1,
13
11
14
0?!
0~
15
06
18
1}
07
02
08
0-
0"
#960000
0!
0,
03
01
04
#970000
1!
1,
13
11
14
1?!
1~
05
16
0}
17
12
1-
1"
#980000
0!
0,
03
01
04
#990000
1!
1,
13
11
14
0?!
0~
15
06
18
1}
07
02
08
0-
0"
