pratico4/PARTE III/simulation/qsim/Counter_Demo.msim.vcd
$comment
	File created using the following command:
		vcd file Counter_Demo.msim.vcd -direction
$end
$date
	Wed Mar 20 15:30:26 2019
$end
$version
	ModelSim Version 10.5b
$end
$timescale
	1ps
$end

$scope module counterdown4_vhd_vec_tst $end
$var wire 1 ! clk $end
$var wire 1 " count [3] $end
$var wire 1 # count [2] $end
$var wire 1 $ count [1] $end
$var wire 1 % count [0] $end

$scope module i1 $end
$var wire 1 & gnd $end
$var wire 1 ' vcc $end
$var wire 1 ( unknown $end
$var wire 1 ) devoe $end
$var wire 1 * devclrn $end
$var wire 1 + devpor $end
$var wire 1 , ww_devoe $end
$var wire 1 - ww_devclrn $end
$var wire 1 . ww_devpor $end
$var wire 1 / ww_clk $end
$var wire 1 0 ww_count [3] $end
$var wire 1 1 ww_count [2] $end
$var wire 1 2 ww_count [1] $end
$var wire 1 3 ww_count [0] $end
$var wire 1 4 \clk~inputclkctrl_INCLK_bus\ [3] $end
$var wire 1 5 \clk~inputclkctrl_INCLK_bus\ [2] $end
$var wire 1 6 \clk~inputclkctrl_INCLK_bus\ [1] $end
$var wire 1 7 \clk~inputclkctrl_INCLK_bus\ [0] $end
$var wire 1 8 \count[0]~output_o\ $end
$var wire 1 9 \count[1]~output_o\ $end
$var wire 1 : \count[2]~output_o\ $end
$var wire 1 ; \count[3]~output_o\ $end
$var wire 1 < \clk~input_o\ $end
$var wire 1 = \clk~inputclkctrl_outclk\ $end
$var wire 1 > \s_count[0]~0_combout\ $end
$var wire 1 ? \Add0~0_combout\ $end
$var wire 1 @ \Add0~1_combout\ $end
$var wire 1 A \Add0~2_combout\ $end
$var wire 1 B s_count [3] $end
$var wire 1 C s_count [2] $end
$var wire 1 D s_count [1] $end
$var wire 1 E s_count [0] $end
$upscope $end
$upscope $end
$enddefinitions $end
#0
$dumpvars
0!
0&
1'
x(
1)
1*
1+
1,
1-
1.
0/
08
09
0:
0;
0<
0=
1>
1?
1@
1A
00
01
02
03
0B
0C
0D
0E
14
15
16
07
0"
0#
0$
0%
$end
#20000
1!
1/
1<
17
1=
1E
1D
1C
1B
0>
1;
1:
19
18
10
11
12
13
1%
1$
1#
1"
#40000
0!
0/
0<
07
0=
#60000
1!
1/
1<
17
1=
0E
1>
0?
08
03
0%
#80000
0!
0/
0<
07
0=
#100000
1!
1/
1<
17
1=
1E
0D
0>
09
18
02
13
1%
0$
#120000
0!
0/
0<
07
0=
#140000
1!
1/
1<
17
1=
0E
1>
1?
0@
08
03
0%
#160000
0!
0/
0<
07
0=
#180000
1!
1/
1<
17
1=
1E
1D
0C
0>
0:
19
18
01
12
13
1%
1$
0#
#200000
0!
0/
0<
07
0=
#220000
1!
1/
1<
17
1=
0E
1>
0?
08
03
0%
#240000
0!
0/
0<
07
0=
#260000
1!
1/
1<
17
1=
1E
0D
0>
09
18
02
13
1%
0$
#280000
0!
0/
0<
07
0=
#300000
1!
1/
1<
17
1=
0E
1>
1?
1@
0A
08
03
0%
#320000
0!
0/
0<
07
0=
#340000
1!
1/
1<
17
1=
1E
1D
1C
0B
0>
0;
1:
19
18
00
11
12
13
1%
1$
1#
0"
#360000
0!
0/
0<
07
0=
#380000
1!
1/
1<
17
1=
0E
1>
0?
08
03
0%
#400000
0!
0/
0<
07
0=
#420000
1!
1/
1<
17
1=
1E
0D
0>
09
18
02
13
1%
0$
#440000
0!
0/
0<
07
0=
#460000
1!
1/
1<
17
1=
0E
1>
1?
0@
08
03
0%
#480000
0!
0/
0<
07
0=
#500000
1!
1/
1<
17
1=
1E
1D
0C
0>
0:
19
18
01
12
13
1%
1$
0#
#520000
0!
0/
0<
07
0=
#540000
1!
1/
1<
17
1=
0E
1>
0?
08
03
0%
#560000
0!
0/
0<
07
0=
#580000
1!
1/
1<
17
1=
1E
0D
0>
09
18
02
13
1%
0$
#600000
0!
0/
0<
07
0=
#620000
1!
1/
1<
17
1=
0E
1>
1?
1@
1A
08
03
0%
#640000
0!
0/
0<
07
0=
#660000
1!
1/
1<
17
1=
1E
1D
1C
1B
0>
1;
1:
19
18
10
11
12
13
1%
1$
1#
1"
#680000
0!
0/
0<
07
0=
#700000
1!
1/
1<
17
1=
0E
1>
0?
08
03
0%
#720000
0!
0/
0<
07
0=
#740000
1!
1/
1<
17
1=
1E
0D
0>
09
18
02
13
1%
0$
#760000
0!
0/
0<
07
0=
#780000
1!
1/
1<
17
1=
0E
1>
1?
0@
08
03
0%
#800000
0!
0/
0<
07
0=
#820000
1!
1/
1<
17
1=
1E
1D
0C
0>
0:
19
18
01
12
13
1%
1$
0#
#840000
0!
0/
0<
07
0=
#860000
1!
1/
1<
17
1=
0E
1>
0?
08
03
0%
#880000
0!
0/
0<
07
0=
#900000
1!
1/
1<
17
1=
1E
0D
0>
09
18
02
13
1%
0$
#920000
0!
0/
0<
07
0=
#940000
1!
1/
1<
17
1=
0E
1>
1?
1@
0A
08
03
0%
#960000
0!
0/
0<
07
0=
#980000
1!
1/
1<
17
1=
1E
1D
1C
0B
0>
0;
1:
19
18
00
11
12
13
1%
1$
1#
0"
